…
# View function index page
help(package = "AMMonitor")
```

The package itself contains many functions and built-in datasets, which
we will introduce over the course of this book. Below, we display the
first 10 functions and datasets as a tibble \[4\]:

``` r
# List the functions in AMMonitor
as.data.frame(ls("package:AMMonitor"))
```

    # A tibble: 87 x 1
       `ls("package:AMMonitor")`
       <fct>                    
     1 accounts                 
     2 activity_amml            
     3 ammCreateDirectories     
     4 analysis                 
     5 annotatePhoto            
     6 annotateRecording        
     7 annotateRecordingModular 
     8 annotations              
     9 classifications          
    10 classifier_practice      
    # ... with 77 more rows
…
